<?xml version="1.0" encoding="utf-8"?>
<!-- Generator: Adobe Illustrator 23.0.3, SVG Export Plug-In . SVG Version: 6.00 Build 0)  -->
<svg version="1.1" id="Calque_1" xmlns="http://www.w3.org/2000/svg" xmlns:xlink="http://www.w3.org/1999/xlink" x="0px" y="0px"
	 viewBox="0 0 54 44.4" style="enable-background:new 0 0 54 44.4;" xml:space="preserve">
<path d="M27,4.8C12.4,4.8,2.8,22.2,2.8,22.2S12.4,39.6,27,39.6s24.1-17.4,24.1-17.4S41.7,4.8,27,4.8z M27,31.4
	c-5.1,0-9.2-4.1-9.2-9.2s4.1-9.3,9.2-9.3s9.2,4.1,9.2,9.3S32.1,31.4,27,31.4z"/>
<circle cx="27" cy="22.2" r="4.8"/>
</svg>
